…
# Filter for seasons 5 through 10 and where result is “Star Baker”

``` r
star_bakers <- final_combine %>%
  filter(series >= 5 & series <= 10,result %in% c("STAR BAKER","WINNER")) %>%
  select(baker, series, episode,result) %>%
arrange(series, episode)
star_bakers
```

    ## # A tibble: 40 × 4
    ##    baker   series episode result    
    ##    <chr>    <dbl>   <dbl> <chr>     
    ##  1 Nancy        5       1 STAR BAKER
    ##  2 Richard      5       2 STAR BAKER
    ##  3 Luis         5       3 STAR BAKER
    ##  4 Richard      5       4 STAR BAKER
    ##  5 Kate         5       5 STAR BAKER
    ##  6 Chetna       5       6 STAR BAKER
    ##  7 Richard      5       7 STAR BAKER
    ##  8 Richard      5       8 STAR BAKER
    ##  9 Richard      5       9 STAR BAKER
    ## 10 Nancy        5      10 WINNER    
    ## # ℹ 30 more rows
…
